Informe_PG1
…
Rows: 1307 Columns: 41

── Column specification ────────────────────────────────────────────────────────
Delimiter: ","
chr (27): Marca temporal, Nombre de usuario, Grupo de la sección 5 que reali...
dbl (14): 1. ¿Cuál es tu edad?, 4. ¿Cuántas horas en promedio al día estudia...

ℹ Use `spec()` to retrieve the full column specification for this data.
ℹ Specify the column types or set `show_col_types = FALSE` to quiet this message.

Data_5 <- DF
Data_5

# A tibble: 1,307 × 41
   `Marca temporal`         `Nombre de usuario` Grupo de la sección …¹ `Grupo 1`
   <chr>                    <chr>               <chr>                  <chr>    
 1 2025/04/17 2:30:11 p. m… paul.valer@utec.ed… Grupo 3                <NA>     
 2 2025/04/17 2:33:48 p. m… u20231f309@gmail.c… Grupo 1                Adrian   
 3 2025/04/17 2:34:05 p. m… luciana.yangali@ut… Grupo 1                Adrian   
 4 2025/04/17 2:34:42 p. m… respaldizaf@gmail.… Grupo 1                Adrian   
 5 2025/04/17 2:35:05 p. m… ricardo.jose.yap.m… Grupo 9                <NA>     
 6 2025/04/17 2:39:18 p. m… fsakiya@gmail.com   Grupo 1                Adrian   
 7 2025/04/17 2:40:38 p. m… paul.pando@utec.ed… Grupo 4                <NA>     
 8 2025/04/17 2:43:42 p. m… samir.mena@utec.ed… Grupo 1                Adrian   
 9 2025/04/17 2:43:47 p. m… samuellaosanchez@g… Grupo 1                Adrian   
10 2025/04/17 2:44:27 p. m… octaviogallo1012@g… Grupo 9                <NA>     
# ℹ 1,297 more rows
# ℹ abbreviated name: ¹​`Grupo de la sección 5 que realiza la encuesta.`
# ℹ 37 more variables: `Grupo 2` <chr>, `Grupo 3` <chr>, `Grupo 4` <chr>,
#   `Grupo 5` <chr>, `Grupo 6` <chr>, `Grupo 7` <chr>, `Grupo 8` <chr>,
#   `Grupo 9` <chr>, `1. ¿Cuál es tu edad?` <dbl>,
#   `2. ¿Cuál es tu sexo?` <chr>,
#   `3. ¿Estas en una universidad privada o pública?` <chr>, …
…
  )
copia1<-Grupo5_renombrado
copia1

# A tibble: 1,307 × 9
   horas_estudio promedio_ponderado tiempo_sin_revisar_el_celular horas_sueno
           <dbl> <chr>              <chr>                               <dbl>
 1           2   14.2               2                                       8
 2           2   17                 5.3                                     8
 3           4   12                 5                                       6
 4           3.5 15.9               1.5                                     6
 5           3   16                 4                                       5
 6           1.5 16.17              1                                       7
 7           2   14.4               0.5                                     7
 8           4   13.57              12                                      8
 9           3   18                 3                                       6
10          10   18                 4                                       5
# ℹ 1,297 more rows
# ℹ 5 more variables: tipo_contenido <chr>, satisfaccion_academica <dbl>,
#   satisfaccion_social <dbl>, universidad <chr>, red_social_mas_usada <chr>
…
 3. ¿Estas en una universidad privada o pública?
 Length:1307                                    
 Class :character                               
 Mode  :character                               

 12. ¿Qué plataforma de red social es la que más usas?
 Length:1307                                          
 Class :character                                     
 Mode  :character                                     

nueva_data

# A tibble: 1,307 × 9
   4. ¿Cuántas horas en promedio…¹ 7. ¿Cuál fue tu prom…² 13. ¿Cuál es el tiem…³
                             <dbl> <chr>                  <chr>                 
 1                             2   14.2                   2                     
 2                             2   17                     5.3                   
 3                             4   12                     5                     
 4                             3.5 15.9                   1.5                   
 5                             3   16                     4                     
 6                             1.5 16.17                  1                     
 7                             2   14.4                   0.5                   
 8                             4   13.57                  12                    
 9                             3   18                     3                     
10                            10   18                     4                     
# ℹ 1,297 more rows
# ℹ abbreviated names: ¹​`4. ¿Cuántas horas en promedio al día estudias?`,
#   ²​`7. ¿Cuál fue tu promedio ponderado el ciclo pasado?`,
#   ³​`13. ¿Cuál es el tiempo máximo que puedes estar sin revisar tus redes sociales?`
# ℹ 6 more variables:
#   `11. ¿Cuántas horas duermes aproximadamente por noche?` <dbl>,
#   `16. ¿Qué tipo de contenido consumes principalmente en redes sociales?` <chr>, …
…
13 5.5 Normalizar

14 Horas de estudio

Grupo5_renombrado %>%
  filter(horas_estudio>10) %>%
  select(c(2))

# A tibble: 35 × 1
   promedio_ponderado
                <dbl>
 1               15.2
 2               12  
 3               19  
 4                1  
 5               15  
 6               18  
 7               15  
 8               16.0
 9               15  
10               13  
# ℹ 25 more rows
…
df_copia<-nueva_data
df<-nueva_data
df

# A tibble: 1,306 × 9
   horas_estudio promedio_ponderado tiempo_sin_revisar_el_celular horas_sueno
           <dbl>              <dbl>                         <dbl>       <dbl>
 1           2                 14.2                           2             8
 2           2                 17                             5.3           8
 3           4                 12                             5             6
 4           3.5               15.9                           1.5           6
 5           3                 16                             4             5
 6           1.5               16.2                           1             7
 7           2                 14.4                           0.5           7
 8           4                 13.6                          12             8
 9           3                 18                             3             6
10          NA                 18                             4             5
# ℹ 1,296 more rows
# ℹ 5 more variables: tipo_contenido <chr>, satisfaccion_academica <dbl>,
#   satisfaccion_social <dbl>, universidad <chr>, red_social_mas_usada <fct>
…
22.2 6.3.2 Analisis bivariado (Promedio ponderado y Tipo de contenido que consumen)

tabla <- Grupo5_renombrado[, c("promedio_ponderado", "tipo_contenido")]

# Imprimir la tabla
print(tabla)

# A tibble: 1,307 × 2
   promedio_ponderado tipo_contenido                                            
                <dbl> <fct>                                                     
 1               14.2 Entretenimiento (ver videos, seguir deportes, escuchar mú…
 2               17   Entretenimiento (ver videos, seguir deportes, escuchar mú…
 3               12   Entretenimiento (ver videos, seguir deportes, escuchar mú…
 4               15.9 Entretenimiento (ver videos, seguir deportes, escuchar mú…
 5               16   Entretenimiento (ver videos, seguir deportes, escuchar mú…
 6               16.2 Entretenimiento (ver videos, seguir deportes, escuchar mú…
 7               14.4 Entretenimiento (ver videos, seguir deportes, escuchar mú…
 8               13.6 Información (noticias , actualidad)                       
 9               18   Entretenimiento (ver videos, seguir deportes, escuchar mú…
10               18   Entretenimiento (ver videos, seguir deportes, escuchar mú…
# ℹ 1,297 more rows
…
